{"count":8,"next":"https://peaceful-meadow-80860.herokuapp.com/api/genres/?limit=5&offset=5","previous":null,"results":[{"id":1,"name":"pop"},{"id":2,"name":"hip hop"},{"id":3,"name":"classical"},{"id":4,"name":"indie-rock"},{"id":5,"name":"bollywood"}]}