{"count":13,"next":"https://peaceful-meadow-80860.herokuapp.com/api/tracks/?limit=5&offset=5","previous":null,"results":[{"id":1,"genres":[{"id":7,"name":"R&B"}],"title":"Pray You Catch Me","track_number":1,"total_ratings":4878,"vote_count":1038,"album":1},{"id":2,"genres":[{"id":1,"name":"pop"}],"title":"Hold Up","track_number":2,"total_ratings":3513,"vote_count":857,"album":1},{"id":3,"genres":[{"id":1,"name":"pop"},{"id":7,"name":"R&B"}],"title":"Don’t Hurt Yourself (feat. Jack White)","track_number":3,"total_ratings":4493,"vote_count":956,"album":1},{"id":4,"genres":[{"id":2,"name":"hip hop"}],"title":"Famous [ft. Rihanna]","track_number":1,"total_ratings":2642,"vote_count":587,"album":2},{"id":5,"genres":[{"id":2,"name":"hip hop"}],"title":"Low Lights","track_number":2,"total_ratings":4617,"vote_count":962,"album":2}]}